Lab1_b11901003/Lab1_1/simulation/qsim/FA4.msim.vcd
$comment
	File created using the following command:
		vcd file FA4.msim.vcd -direction
$end
$date
	Thu Nov 17 19:41:48 2022
$end
$version
	ModelSim Version 10.1d
$end
$timescale
	1ps
$end
$scope module FA4_vlg_vec_tst $end
$var reg 4 ! A [3:0] $end
$var reg 4 " B [3:0] $end
$var wire 1 # Co $end
$var wire 1 $ S [3] $end
$var wire 1 % S [2] $end
$var wire 1 & S [1] $end
$var wire 1 ' S [0] $end
$var wire 1 ( sampler $end
$scope module i1 $end
$var wire 1 ) gnd $end
$var wire 1 * vcc $end
$var wire 1 + unknown $end
$var tri1 1 , devclrn $end
$var tri1 1 - devpor $end
$var tri1 1 . devoe $end
$var wire 1 / Co~output_o $end
$var wire 1 0 S[3]~output_o $end
$var wire 1 1 S[2]~output_o $end
$var wire 1 2 S[1]~output_o $end
$var wire 1 3 S[0]~output_o $end
$var wire 1 4 A[2]~input_o $end
$var wire 1 5 B[2]~input_o $end
$var wire 1 6 B[1]~input_o $end
$var wire 1 7 A[0]~input_o $end
$var wire 1 8 A[1]~input_o $end
$var wire 1 9 B[0]~input_o $end
$var wire 1 : inst6|inst4|inst~0_combout $end
$var wire 1 ; inst5|inst4|inst~1_combout $end
$var wire 1 < inst5|inst4|inst~0_combout $end
$var wire 1 = A[3]~input_o $end
$var wire 1 > B[3]~input_o $end
$var wire 1 ? inst|inst4|inst~0_combout $end
$var wire 1 @ inst|inst1|inst~combout $end
$var wire 1 A inst5|inst1|inst~0_combout $end
$var wire 1 B inst6|inst1|inst~0_combout $end
$var wire 1 C inst7|inst|inst~combout $end
$upscope $end
$upscope $end
$enddefinitions $end
#0
$dumpvars
b0 !
b0 "
0#
0'
0&
0%
0$
x(
0)
1*
x+
1,
1-
1.
0/
00
01
02
03
04
05
06
07
08
09
0:
0;
0<
0=
0>
0?
0@
0A
0B
0C
$end
#10000
b1000 "
b1010 "
16
1>
0(
1B
1@
12
10
1&
1$
#30000
b10 !
b11 !
b1011 "
b11 "
b1 "
19
06
0>
17
18
1(
1:
0B
0@
02
00
0&
0$
1A
11
1%
#50000
b1011 !
b1111 !
b1101 !
b0 "
b1000 "
b1010 "
09
16
1>
08
14
1=
0(
0:
1<
1C
1B
1?
0A
0<
13
12
1/
01
1'
1&
1#
0%
1A
1@
11
10
1%
1$
0@
00
0$
#70000
b101 !
0=
1(
1@
0?
10
0/
1$
0#
#90000
b100 !
b0 !
b10 !
b1010 !
07
18
04
1=
0(
1:
0C
0B
0A
0@
1?
03
02
01
00
1/
0'
0&
0%
0$
1#
1A
11
1%
#110000
b1110 "
b1100 "
b1000 !
08
06
15
1(
0:
1;
0A
0;
01
0%
1A
1@
11
10
1%
1$
0@
00
0$
#130000
b1101 "
b1001 !
b1101 !
b1111 "
b1111 !
17
18
14
19
16
0(
1:
1;
1B
0A
1<
12
01
1&
0%
1A
1@
11
10
1%
1$
#150000
b1011 "
b1001 "
b1101 !
08
06
05
1(
0:
0;
0A
0<
01
0%
1A
11
1%
0@
00
0$
#170000
b1 "
b101 !
b0 "
b100 "
0=
09
15
0>
0(
1;
0?
1C
0B
0A
0/
13
02
01
0#
1'
0&
0%
1@
10
1$
#190000
b100 !
b110 "
b110 !
b1110 !
b111 "
b11 "
19
16
05
07
18
1=
1(
1:
0;
1A
0@
1?
1<
11
00
1/
1%
0$
1#
0A
1@
0?
01
10
0/
0%
1$
0#
0@
1?
00
1/
0$
1#
#210000
b1111 !
17
0(
0C
1B
03
12
0'
1&
#230000
b1011 !
b1 "
b0 "
b100 "
b1010 !
09
06
15
07
04
1(
0:
1;
0<
0;
1A
11
1%
1@
0?
10
0/
1$
0#
#250000
b1000 !
b0 !
b110 "
b111 "
19
16
08
0=
0(
1C
0@
13
00
1'
0$
#270000
b1111 "
b1011 "
b10 !
b1010 !
18
1=
05
1>
1(
1:
0B
1?
0A
02
1/
01
0&
1#
0%
1A
11
1%
#290000
b1110 !
b1001 "
b1 "
b1100 !
06
0>
08
14
0(
0:
1<
1@
0?
0A
0<
10
0/
01
1$
0#
0%
1A
0@
1?
11
00
1/
1%
0$
1#
1@
0?
10
0/
1$
0#
#310000
b11 "
b1011 "
16
1>
1(
1B
0@
1?
12
00
1/
1&
0$
1#
#330000
b1101 !
b1010 "
b1000 "
09
06
17
0(
0B
02
0&
#350000
b1100 "
b1001 !
b1011 !
b1101 "
b1111 "
18
04
19
16
15
1(
1:
1B
0C
1;
12
03
1&
0'
0A
01
0%
1@
10
1$
#370000
b111 "
b1001 !
b110 "
b100 "
08
09
06
0>
0(
0:
0B
1C
0@
0;
02
13
00
0&
1'
0$
1A
11
1%
1@
0?
10
0/
1$
0#
#390000
b1000 !
b1100 !
b1110 !
b101 "
b111 "
19
16
07
18
14
1(
1:
1;
0A
1<
01
0%
1A
0@
1?
11
00
1/
1%
0$
1#
#410000
b11 "
05
0(
0;
0A
01
0%
#430000
b110 !
b1011 "
b111 !
b1010 "
b1000 "
b1100 "
09
06
15
1>
17
0=
1(
0:
1;
1B
1A
0<
12
11
1&
1%
0A
01
0%
#450000
b1111 !
b100 "
b1110 !
b101 "
b111 "
b11 "
19
16
05
0>
07
1=
0(
1:
0;
0B
1A
1<
02
11
0&
1%
0A
1@
0?
01
10
0/
0%
1$
0#
0@
1?
00
1/
0$
1#
#460000
b1010 !
b1000 !
b0 !
b10 "
b0 "
09
06
08
04
0=
1(
0:
0<
0C
1A
1@
0?
03
11
10
0/
0'
1%
1$
0#
0A
0@
01
00
0%
0$
