Lab2_b11901003/Lab2_1/simulation/qsim/SD.msim.vcd
$comment
	File created using the following command:
		vcd file SD.msim.vcd -direction
$end
$date
	Mon Dec 26 20:47:56 2022
$end
$version
	ModelSim Version 10.1d
$end
$timescale
	1ps
$end
$scope module SD_vlg_vec_tst $end
$var reg 1 ! clk $end
$var reg 1 " rst_n $end
$var reg 1 # X $end
$var wire 1 $ Z $end
$var wire 1 % sampler $end
$scope module i1 $end
$var wire 1 & gnd $end
$var wire 1 ' vcc $end
$var wire 1 ( unknown $end
$var tri1 1 ) devclrn $end
$var tri1 1 * devpor $end
$var tri1 1 + devoe $end
$var wire 1 , Z~output_o $end
$var wire 1 - clk~input_o $end
$var wire 1 . clk~inputclkctrl_outclk $end
$var wire 1 / X~input_o $end
$var wire 1 0 inst3|inst~combout $end
$var wire 1 1 rst_n~input_o $end
$var wire 1 2 rst_n~inputclkctrl_outclk $end
$var wire 1 3 inst|inst~q $end
$var wire 1 4 inst5|inst~combout $end
$var wire 1 5 inst1|inst~q $end
$var wire 1 6 inst2|inst~combout $end
$upscope $end
$upscope $end
$enddefinitions $end
#0
$dumpvars
0!
0"
0#
x$
x%
0&
1'
x(
1)
1*
1+
x,
0-
x.
0/
x0
01
x2
03
x4
05
x6
$end
#378
02
0.
#412
00
#413
06
#3298
0,
0$
#3712
14
#10000
1!
0%
#10527
1-
#10917
1.
#20000
0!
1%
#20701
0-
#21079
0.
#30000
1!
0%
#30527
1-
#30917
1.
#40000
1"
0!
1%
#40527
11
#40701
0-
#40917
12
#41079
0.
#50000
1!
0%
#50527
1-
#50917
1.
#52552
15
#60000
1#
0!
1%
#60517
1/
#60701
0-
#61079
0.
#63810
10
#70000
1!
0%
#70527
1-
#70917
1.
#72552
13
#72893
04
#80000
0!
1%
#80701
0-
#81079
0.
#90000
1!
0%
#90527
1-
#90917
1.
#92552
05
#92964
00
#93219
16
#96220
1,
1$
#100000
0!
1%
#100701
0-
#101079
0.
#110000
1!
0%
#110527
1-
#110917
1.
#112552
03
#112965
06
#115850
0,
0$
#120000
0!
1%
#120701
0-
#121079
0.
#130000
1!
0%
#130527
1-
#130917
1.
#140000
0#
0!
1%
#140691
0/
#140701
0-
#141079
0.
#144403
14
#150000
1!
0%
#150527
1-
#150917
1.
#152552
15
#160000
0!
1%
#160701
0-
#161079
0.
#170000
1!
0%
#170527
1-
#170917
1.
#180000
0!
1%
#180701
0-
#181079
0.
#190000
1!
0%
#190527
1-
#190917
1.
#200000
0!
1%
#200701
0-
#201079
0.
#210000
1!
0%
#210527
1-
#210917
1.
#220000
0!
1%
#220701
0-
#221079
0.
#230000
1!
0%
#230527
1-
#230917
1.
#240000
1#
0!
1%
#240517
1/
#240701
0-
#241079
0.
#243810
10
#250000
1!
0%
#250527
1-
#250917
1.
#252552
13
#252893
04
#260000
0#
0!
1%
#260691
0/
#260701
0-
#261079
0.
#264231
00
#264403
14
#270000
1!
0%
#270527
1-
#270917
1.
#272552
03
#280000
0!
1%
#280701
0-
#281079
0.
#290000
1!
0%
#290527
1-
#290917
1.
#300000
1#
0!
1%
#300517
1/
#300701
0-
#301079
0.
#303810
10
#310000
1!
0%
#310527
1-
#310917
1.
#312552
13
#312893
04
#320000
0#
0!
1%
#320691
0/
#320701
0-
#321079
0.
#324231
00
#324403
14
#330000
1!
0%
#330527
1-
#330917
1.
#332552
03
#340000
0!
1%
#340701
0-
#341079
0.
#350000
1!
0%
#350527
1-
#350917
1.
#360000
1#
0!
1%
#360517
1/
#360701
0-
#361079
0.
#363810
10
#370000
1!
0%
#370527
1-
#370917
1.
#372552
13
#372893
04
#380000
0!
1%
#380701
0-
#381079
0.
#390000
1!
0%
#390527
1-
#390917
1.
#392552
05
#392964
00
#393219
16
#396220
1,
1$
#400000
0#
0!
1%
#400691
0/
#400701
0-
#401079
0.
#404403
14
#410000
1!
0%
#410527
1-
#410917
1.
#412552
03
15
#413139
06
#416024
0,
0$
#420000
0!
1%
#420701
0-
#421079
0.
#430000
1!
0%
#430527
1-
#430917
1.
#440000
0!
1%
#440701
0-
#441079
0.
#450000
1!
0%
#450527
1-
#450917
1.
#460000
1#
0!
1%
#460517
1/
#460701
0-
#461079
0.
#463810
10
#470000
1!
0%
#470527
1-
#470917
1.
#472552
13
#472893
04
#480000
0!
1%
#480701
0-
#481079
0.
#490000
1!
0%
#490527
1-
#490917
1.
#492552
05
#492964
00
#493219
16
#496220
1,
1$
#500000
0!
1%
#500701
0-
#501079
0.
#510000
1!
0%
#510527
1-
#510917
1.
#512552
03
#512965
06
#515850
0,
0$
#520000
0!
1%
#520701
0-
#521079
0.
#530000
1!
0%
#530527
1-
#530917
1.
#540000
0!
1%
#540701
0-
#541079
0.
#550000
1!
0%
#550527
1-
#550917
1.
#560000
0#
0!
1%
#560691
0/
#560701
0-
#561079
0.
#564403
14
#570000
1!
0%
#570527
1-
#570917
1.
#572552
15
#580000
1#
0!
1%
#580517
1/
#580701
0-
#581079
0.
#583810
10
#590000
1!
0%
#590527
1-
#590917
1.
#592552
13
#592893
04
#600000
0#
0!
1%
#600691
0/
#600701
0-
#601079
0.
#604231
00
#604403
14
#610000
1!
0%
#610527
1-
#610917
1.
#612552
03
#620000
1#
0!
1%
#620517
1/
#620701
0-
#621079
0.
#623810
10
#630000
1!
0%
#630527
1-
#630917
1.
#632552
13
#632893
04
#640000
0!
1%
#640701
0-
#641079
0.
#650000
1!
0%
#650527
1-
#650917
1.
#652552
05
#652964
00
#653219
16
#656220
1,
1$
#660000
0!
1%
#660701
0-
#661079
0.
#670000
1!
0%
#670527
1-
#670917
1.
#672552
03
#672965
06
#675850
0,
0$
#680000
0#
0!
1%
#680691
0/
#680701
0-
#681079
0.
#684403
14
#690000
1!
0%
#690527
1-
#690917
1.
#692552
15
#700000
0!
1%
#700701
0-
#701079
0.
#710000
1!
0%
#710527
1-
#710917
1.
#720000
0!
1%
#720701
0-
#721079
0.
#730000
1!
0%
#730527
1-
#730917
1.
#740000
1#
0!
1%
#740517
1/
#740701
0-
#741079
0.
#743810
10
#750000
1!
0%
#750527
1-
#750917
1.
#752552
13
#752893
04
#760000
0!
1%
#760701
0-
#761079
0.
#770000
1!
0%
#770527
1-
#770917
1.
#772552
05
#772964
00
#773219
16
#776220
1,
1$
#780000
0#
0!
1%
#780691
0/
#780701
0-
#781079
0.
#784403
14
#790000
1!
0%
#790527
1-
#790917
1.
#792552
03
15
#793139
06
#796024
0,
0$
#800000
1#
0!
1%
#800517
1/
#800701
0-
#801079
0.
#803810
10
#810000
1!
0%
#810527
1-
#810917
1.
#812552
13
#812893
04
#820000
0#
0!
1%
#820691
0/
#820701
0-
#821079
0.
#824231
00
#824403
14
#830000
1!
0%
#830527
1-
#830917
1.
#832552
03
#840000
1#
0!
1%
#840517
1/
#840701
0-
#841079
0.
#843810
10
#850000
1!
0%
#850527
1-
#850917
1.
#852552
13
#852893
04
#860000
0!
1%
#860701
0-
#861079
0.
#870000
1!
0%
#870527
1-
#870917
1.
#872552
05
#872964
00
#873219
16
#876220
1,
1$
#880000
0!
1%
#880701
0-
#881079
0.
#890000
1!
0%
#890527
1-
#890917
1.
#892552
03
#892965
06
#895850
0,
0$
#900000
0#
0!
1%
#900691
0/
#900701
0-
#901079
0.
#904403
14
#910000
1!
0%
#910527
1-
#910917
1.
#912552
15
#920000
1#
0!
1%
#920517
1/
#920701
0-
#921079
0.
#923810
10
#930000
1!
0%
#930527
1-
#930917
1.
#932552
13
#932893
04
#940000
0!
1%
#940701
0-
#941079
0.
#950000
1!
0%
#950527
1-
#950917
1.
#952552
05
#952964
00
#953219
16
#956220
1,
1$
#960000
0!
1%
#960701
0-
#961079
0.
#970000
1!
0%
#970527
1-
#970917
1.
#972552
03
#972965
06
#975850
0,
0$
#980000
0#
0!
1%
#980691
0/
#980701
0-
#981079
0.
#984403
14
#990000
0"
1!
0%
#990527
1-
#990701
01
