Lab1_b11901003/Lab1_2/simulation/qsim/FS4.msim.vcd
$comment
	File created using the following command:
		vcd file FS4.msim.vcd -direction
$end
$date
	Sat Nov 19 21:57:12 2022
$end
$version
	ModelSim Version 10.1d
$end
$timescale
	1ps
$end
$scope module FS4_vlg_vec_tst $end
$var reg 4 ! A [3:0] $end
$var reg 4 " B [3:0] $end
$var wire 1 # D [4] $end
$var wire 1 $ D [3] $end
$var wire 1 % D [2] $end
$var wire 1 & D [1] $end
$var wire 1 ' D [0] $end
$var wire 1 ( sampler $end
$scope module i1 $end
$var wire 1 ) gnd $end
$var wire 1 * vcc $end
$var wire 1 + unknown $end
$var tri1 1 , devclrn $end
$var tri1 1 - devpor $end
$var tri1 1 . devoe $end
$var wire 1 / D[4]~output_o $end
$var wire 1 0 D[3]~output_o $end
$var wire 1 1 D[2]~output_o $end
$var wire 1 2 D[1]~output_o $end
$var wire 1 3 D[0]~output_o $end
$var wire 1 4 B[2]~input_o $end
$var wire 1 5 A[2]~input_o $end
$var wire 1 6 A[1]~input_o $end
$var wire 1 7 A[0]~input_o $end
$var wire 1 8 B[0]~input_o $end
$var wire 1 9 B[1]~input_o $end
$var wire 1 : inst1|inst12|inst~0_combout $end
$var wire 1 ; inst2|inst12|inst~0_combout $end
$var wire 1 < B[3]~input_o $end
$var wire 1 = A[3]~input_o $end
$var wire 1 > inst3|inst12|inst~0_combout $end
$var wire 1 ? inst3|inst3|inst1~combout $end
$var wire 1 @ inst2|inst3|inst1~combout $end
$var wire 1 A inst1|inst3|inst1~0_combout $end
$var wire 1 B inst|inst3|inst~combout $end
$upscope $end
$upscope $end
$enddefinitions $end
#0
$dumpvars
b1010 !
b11 "
1'
1&
1%
0$
0#
x(
0)
1*
x+
1,
1-
1.
0/
00
11
12
13
04
05
16
07
18
19
1:
1;
0<
1=
0>
0?
1@
1A
1B
$end
#20000
b1110 !
b111 "
b101 "
b100 "
08
09
14
15
0(
0:
0B
0;
03
0'
0@
01
0%
1?
10
1$
#40000
b110 !
b100 !
b0 !
b0 "
b1 "
18
04
06
05
0=
1(
1:
1B
0?
1;
13
00
1'
0$
1@
11
1%
1?
1>
10
1/
1$
1#
#60000
b1001 "
b1000 !
b1010 !
16
1=
1<
0(
0:
0A
0;
02
0&
0@
01
0%
0?
0>
00
0/
0$
0#
#80000
b1011 "
b1111 "
b111 "
19
14
0<
1(
1:
1;
1A
1@
1?
12
11
10
1&
1%
1$
0@
0?
01
00
0%
0$
#100000
b1011 !
b1111 !
b111 !
b11 "
04
17
15
0=
0(
0;
0:
0B
0A
1?
1>
03
02
10
1/
0'
0&
1$
1#
0?
0>
1@
00
0/
11
0$
0#
1%
#120000
b101 !
b100 !
b1100 !
b111 "
14
07
06
1=
1(
1:
0@
1B
1?
1;
01
13
10
0%
1'
1$
1@
11
1%
0?
00
0$
#140000
b110 "
b100 "
b1100 "
b1110 !
b110 !
16
0=
08
09
1<
0(
0:
1A
1>
0B
0;
12
1/
03
1&
1#
0'
0@
01
0%
1?
10
1$
#160000
b1000 "
b1001 "
b1110 !
1=
18
04
1(
0?
0>
1B
0A
1@
00
0/
13
02
11
0$
0#
1'
0&
1%
#180000
b1010 !
b1011 !
b1 "
b0 "
08
0<
17
05
0(
1A
1?
0@
12
10
01
1&
1$
0%
#200000
b10 "
b1001 !
b11 "
06
18
19
1(
1:
0B
1;
03
0'
1@
11
1%
0?
00
0$
#220000
b1 !
b101 !
b100 !
b1011 "
1<
07
15
0=
0(
0;
1>
1B
0A
0@
1/
13
02
01
1#
1'
0&
0%
1?
10
1$
#240000
b1111 "
b110 !
b10 !
b11 !
b111 "
17
16
05
14
0<
1(
0:
1;
0B
0?
0>
03
00
0/
0'
0$
0#
1@
1?
1>
11
10
1/
1%
1$
1#
#260000
b11 "
b111 !
b1011 "
15
04
1<
0(
0;
0?
00
0$
1?
10
1$
#280000
b101 !
b1111 "
b1 !
b111 "
14
0<
06
05
1(
1;
1:
0?
0>
1A
00
0/
12
0$
0#
1&
1?
1>
0@
10
1/
01
1$
1#
0%
#300000
b110 "
b1001 !
b1011 !
b1110 "
16
1=
08
1<
0(
0:
0A
1B
02
13
0&
1'
1@
11
1%
#320000
b1010 "
b1111 !
b1011 "
b111 !
b101 !
b11 "
06
15
0=
18
04
0<
1(
1:
0;
1A
0B
12
03
1&
0'
0@
0?
0>
01
00
0/
0%
0$
0#
#340000
b1 "
b100 !
b110 !
07
16
09
0(
0:
1B
0A
13
02
1'
0&
1@
11
1%
#360000
b101 "
b100 "
b1100 "
b1110 "
b111 !
b101 !
17
06
08
19
14
1<
1(
1:
1A
0@
1?
1>
1;
12
01
10
1/
1&
0%
1$
1#
1@
11
1%
0?
00
0$
#380000
b1010 "
b1011 "
b100 !
07
18
04
0(
0;
0A
0@
02
01
0&
0%
1?
10
1$
#400000
b11 "
b111 "
b101 !
17
14
0<
1(
1;
0B
1A
1@
0?
0>
03
12
11
00
0/
0'
1&
1%
0$
0#
1?
1>
10
1/
1$
1#
#420000
b1 !
b11 !
b110 "
b1110 "
b1010 "
b10 !
08
04
1<
07
16
05
0(
0:
0A
0?
0;
02
00
0&
0$
0@
01
0%
1?
10
1$
#440000
b1000 "
b110 !
b100 !
b0 "
b100 "
b101 !
17
06
15
09
14
0<
1(
1B
0?
0>
13
00
0/
1'
0$
0#
#460000
b1101 !
b1001 !
b1011 !
16
05
1=
0(
1;
1A
1@
1?
12
11
10
1&
1%
1$
0?
00
0$
#480000
b101 "
b1101 "
b11 !
b111 !
b101 !
06
15
0=
18
1<
1(
0;
0A
0@
1>
0B
02
01
1/
03
0&
0%
1#
0'
1?
10
1$
#500000
b100 !
b110 !
07
16
0(
1B
13
1'
#520000
b1100 "
b100 "
b10 !
05
08
0<
1(
1;
1@
0B
1A
0?
0>
11
03
12
00
0/
1%
0'
1&
0$
0#
1?
1>
10
1/
1$
1#
#540000
b1010 !
b1011 !
b1001 !
b1101 !
17
06
15
1=
0(
0;
1B
0A
0@
0?
0>
13
02
01
00
0/
1'
0&
0%
0$
0#
1?
10
1$
#560000
b101 !
b100 !
b110 !
b10 !
07
16
05
0=
1(
1;
0B
1A
1@
0?
03
12
11
00
0'
1&
1%
0$
1?
1>
10
1/
1$
1#
#580000
b110 "
b1110 "
b1010 !
b1000 !
06
1=
19
1<
0(
1:
0@
01
0%
#600000
b1100 !
b1100 "
b100 "
b100 !
b110 !
09
0<
16
15
0=
1(
0:
1@
0;
11
1%
0@
01
0%
0?
0>
00
0/
0$
0#
#620000
b0 "
b100 !
06
04
0(
0A
1@
02
11
0&
1%
#640000
b1 "
b101 !
b1 !
b1001 "
b1101 "
b11 !
17
16
05
18
14
1<
1(
1;
1A
1?
1>
12
10
1/
1&
1$
1#
0?
00
0$
#660000
b10 !
b101 "
b1 "
04
0<
07
0(
0;
0@
1?
1B
0A
01
10
13
02
0%
1$
1'
0&
0?
0>
00
0/
0$
0#
#680000
b11 "
b110 !
b111 "
15
19
14
1(
1:
1A
1;
12
1&
1@
11
1%
1?
1>
10
1/
1$
1#
#700000
b101 "
09
0(
0:
0A
0;
02
0&
0@
01
0%
0?
0>
00
0/
0$
0#
#720000
b100 "
b100 !
b101 !
b110 "
17
06
08
19
1(
1:
1A
1;
12
1&
1@
11
1%
1?
1>
10
1/
1$
1#
#740000
b1101 !
b111 "
b1111 !
b1110 !
18
07
16
1=
0(
0?
0>
00
0/
0$
0#
#760000
b1111 "
b1110 "
b1100 !
06
08
1<
1(
0B
1?
1>
03
10
1/
0'
1$
1#
#780000
b1000 !
b1010 "
b1000 "
b0 !
b0 "
b10 !
09
04
0<
16
05
0=
0(
0:
0;
0@
01
0%
0?
0>
00
0/
0$
0#
#800000
b110 !
b100 "
b110 "
b1110 "
19
14
1<
15
1(
0A
1?
1>
02
10
1/
0&
1$
1#
#820000
b1111 "
b1110 !
b1100 !
b1011 "
06
1=
18
04
0(
1:
0?
0>
1B
1@
00
0/
13
11
0$
0#
1'
1%
0@
01
0%
#840000
b1000 !
b1010 "
b0 !
b10 !
b1110 "
08
14
16
05
0=
1(
0:
1;
0B
1?
1>
03
10
1/
0'
1$
1#
1@
0?
11
00
1%
0$
#860000
b110 !
b1010 "
04
15
0(
0;
1?
10
1$
#880000
b1011 "
b100 !
b0 !
06
05
18
1(
1:
0@
1B
1;
01
13
0%
1'
1@
11
1%
0?
00
0$
#900000
b1 !
b1001 "
b1 "
b1001 !
b1011 !
b1111 !
09
0<
17
16
15
1=
0(
0:
0;
1A
0>
0B
0@
12
0/
03
01
1&
0#
0'
0%
1@
1?
11
10
1%
1$
#920000
b0 "
b111 !
b11 !
05
0=
08
1(
0@
0?
1B
01
00
13
0%
0$
1'
#940000
b1 !
b1001 !
b1101 !
06
15
1=
0(
0A
1@
1?
02
11
10
0&
1%
1$
#960000
b1100 !
07
1(
0B
03
0'
#970000
b100 !
b0 !
05
0=
0(
0@
0?
01
00
0%
0$
