Lab2_b11901003/Lab2_3/simulation/qsim/WSC.msim.vcd
$comment
	File created using the following command:
		vcd file WSC.msim.vcd -direction
$end
$date
	Wed Dec 28 16:45:35 2022
$end
$version
	ModelSim Version 10.1d
$end
$timescale
	1ps
$end
$scope module WSC_vlg_vec_tst $end
$var reg 1 ! clk $end
$var reg 1 " load $end
$var reg 1 # rst_n $end
$var reg 1 $ X $end
$var wire 1 % done $end
$var wire 1 & score [3] $end
$var wire 1 ' score [2] $end
$var wire 1 ( score [1] $end
$var wire 1 ) score [0] $end
$var wire 1 * sampler $end
$scope module i1 $end
$var wire 1 + gnd $end
$var wire 1 , vcc $end
$var wire 1 - unknown $end
$var tri1 1 . devclrn $end
$var tri1 1 / devpor $end
$var tri1 1 0 devoe $end
$var wire 1 1 done~output_o $end
$var wire 1 2 score[3]~output_o $end
$var wire 1 3 score[2]~output_o $end
$var wire 1 4 score[1]~output_o $end
$var wire 1 5 score[0]~output_o $end
$var wire 1 6 clk~input_o $end
$var wire 1 7 clk~inputclkctrl_outclk $end
$var wire 1 8 load~input_o $end
$var wire 1 9 inst11|inst6|inst~combout $end
$var wire 1 : rst_n~input_o $end
$var wire 1 ; rst_n~inputclkctrl_outclk $end
$var wire 1 < inst11|inst1|inst~q $end
$var wire 1 = inst11|inst5|inst~0_combout $end
$var wire 1 > inst11|inst|inst~q $end
$var wire 1 ? X~input_o $end
$var wire 1 @ inst9|inst13|inst2~0_combout $end
$var wire 1 A inst9|inst|inst~q $end
$var wire 1 B inst9|inst14|inst2~combout $end
$var wire 1 C inst9|inst1|inst~q $end
$var wire 1 D inst9|inst15|inst2~0_combout $end
$var wire 1 E inst9|inst15|inst2~1_combout $end
$var wire 1 F inst9|inst2|inst~q $end
$var wire 1 G inst9|inst3|inst~combout $end
$var wire 1 H inst|inst7|inst|inst~combout $end
$var wire 1 I inst7|inst3|inst~combout $end
$var wire 1 J inst7|inst5|inst~q $end
$var wire 1 K inst|inst7|inst2|inst~combout $end
$var wire 1 L inst7|inst4|inst~combout $end
$var wire 1 M inst7|inst2|inst~q $end
$var wire 1 N inst|inst6|inst4|inst~0_combout $end
$var wire 1 O inst7|inst7|inst~combout $end
$var wire 1 P inst7|inst1|inst~q $end
$var wire 1 Q inst7|inst6|inst~combout $end
$var wire 1 R inst7|inst|inst~q $end
$upscope $end
$upscope $end
$enddefinitions $end
#0
$dumpvars
0!
0"
0#
0$
x%
x)
x(
x'
x&
x*
0+
1,
x-
1.
1/
10
x1
x2
x3
x4
x5
06
x7
08
x9
0:
x;
0<
x=
0>
0?
x@
0A
xB
0C
xD
xE
0F
xG
xH
xI
0J
xK
xL
0M
xN
xO
0P
xQ
0R
$end
#378
0;
07
#555
0H
#586
0N
0G
#660
0K
#689
0@
#696
0=
#765
0Q
#873
0I
#912
0O
#987
0L
#3089
03
0'
#3103
01
0%
#3204
05
0)
#3275
02
0&
#3685
04
0(
#3728
0E
#3753
0B
#3754
0D
#3795
09
#20000
1!
0*
#20527
16
#20917
17
#40000
0!
1*
#40701
06
#41079
07
#60000
1!
0*
#60527
16
#60917
17
#80000
0!
1*
#80701
06
#81079
07
#100000
1!
0*
#100527
16
#100917
17
#120000
0!
1*
#120701
06
#121079
07
#140000
1!
0*
#140527
16
#140917
17
#160000
1#
0!
1*
#160527
1:
#160701
06
#160917
1;
#161079
07
#180000
1!
0*
#180527
16
#180917
17
#200000
1"
0!
1*
#200517
18
#200701
06
#201079
07
#204028
19
#220000
1!
0*
#220527
16
#220917
17
#222554
1<
#240000
0!
1*
#240701
06
#241079
07
#260000
1!
0*
#260527
16
#260917
17
#280000
0!
1*
#280701
06
#281079
07
#300000
1!
0*
#300527
16
#300917
17
#320000
0!
1*
#320701
06
#321079
07
#340000
1!
0*
#340527
16
#340917
17
#360000
0!
1*
#360701
06
#361079
07
#380000
1!
0*
#380527
16
#380917
17
#400000
1$
0!
1*
#400507
1?
#400701
06
#401079
07
#403970
1B
#403989
1D
#404293
1E
#420000
1!
0*
#420527
16
#420917
17
#422554
1C
1F
#422923
0B
#423051
0D
#423141
1@
#423369
0E
#440000
0!
1*
#440701
06
#441079
07
#460000
1!
0*
#460527
16
#460917
17
#462554
1A
0C
0F
#462924
1D
#463228
1E
#463298
1H
#463601
1I
#480000
0!
1*
#480701
06
#481079
07
#500000
1!
0*
#500527
16
#500917
17
#502554
1F
1J
#505839
15
1)
#520000
0!
1*
#520701
06
#521079
07
#540000
1!
0*
#540527
16
#540917
17
#560000
0!
1*
#560701
06
#561079
07
#580000
1!
0*
#580527
16
#580917
17
#600000
0$
0!
1*
#600681
0?
#600701
06
#601079
07
#604376
0@
#620000
1!
0*
#620527
16
#620917
17
#622554
0A
#622992
0D
#623310
0E
#640000
0!
1*
#640701
06
#641079
07
#660000
1!
0*
#660527
16
#660917
17
#662554
0F
#680000
0!
1*
#680701
06
#681079
07
#700000
1!
0*
#700527
16
#700917
17
#720000
0!
1*
#720701
06
#721079
07
#740000
1!
0*
#740527
16
#740917
17
#760000
1$
0!
1*
#760507
1?
#760701
06
#761079
07
#763970
1B
#763989
1D
#764293
1E
#780000
1!
0*
#780527
16
#780917
17
#782554
1C
1F
#782923
0B
#783051
0D
#783141
1@
#783369
0E
#800000
0!
1*
#800701
06
#801079
07
#820000
1!
0*
#820527
16
#820917
17
#822554
1A
0C
0F
#822924
1D
#823228
1E
#823281
1K
#823303
0H
#823592
1L
#823621
0I
#840000
0$
0!
1*
#840681
0?
#840701
06
#841079
07
#844376
0@
#860000
1!
0*
#860527
16
#860917
17
#862554
0A
1F
0J
1M
#862923
0L
#862992
0D
#863165
1N
#863206
0K
#863310
0E
#863475
1O
#863533
0N
#863543
1L
#863859
0O
#865758
05
0)
#866346
14
1(
#880000
1$
0!
1*
#880507
1?
#880701
06
#881079
07
#883970
1B
#900000
1!
0*
#900527
16
#900917
17
#902554
1C
0F
#902923
0B
#903016
1G
#903141
1@
#903284
1N
#903298
1H
#903571
0L
#903594
1O
#903601
1I
#920000
0!
1*
#920701
06
#921079
07
#940000
1!
0*
#940527
16
#940917
17
#942554
1A
0C
1J
0M
1P
#942907
1L
#942923
0O
#942924
1D
#943056
0H
#943140
0G
#943164
1K
#943215
0N
#943228
1E
#943262
1Q
#943374
0I
#943541
0Q
#943551
1O
#945718
13
1'
#945839
15
1)
#946239
04
0(
#960000
0!
1*
#960701
06
#961079
07
#980000
1!
0*
#980527
16
#980917
17
#982554
1F
0J
1M
#982923
0L
#983165
1N
#983206
0K
#983465
0O
#983475
1Q
#983533
0N
#983543
1L
#983859
0Q
#983869
1O
#985758
05
0)
#986346
14
1(
#1000000
0!
1*
#1000701
06
#1001079
07
#1020000
1!
0*
#1020527
16
#1020917
17
#1040000
0!
1*
#1040701
06
#1041079
07
#1060000
1!
0*
#1060527
16
#1060917
17
#1080000
0!
1*
#1080701
06
#1081079
07
#1100000
1!
0*
#1100527
16
#1100917
17
#1120000
0!
1*
#1120701
06
#1121079
07
#1140000
1!
0*
#1140527
16
#1140917
17
#1160000
0!
1*
#1160701
06
#1161079
07
#1180000
1!
0*
#1180527
16
#1180917
17
#1200000
0$
0!
1*
#1200681
0?
#1200701
06
#1201079
07
#1204376
0@
#1220000
1!
0*
#1220527
16
#1220917
17
#1222554
0A
#1222992
0D
#1223310
0E
#1240000
0!
1*
#1240701
06
#1241079
07
#1260000
1!
0*
#1260527
16
#1260917
17
#1262554
0F
#1280000
0!
1*
#1280701
06
#1281079
07
#1300000
1!
0*
#1300527
16
#1300917
17
#1320000
1$
0!
1*
#1320507
1?
#1320701
06
#1321079
07
#1323970
1B
#1323989
1D
#1324293
1E
#1340000
1!
0*
#1340527
16
#1340917
17
#1342554
1C
1F
#1342923
0B
#1343051
0D
#1343141
1@
#1343369
0E
#1360000
0$
0!
1*
#1360681
0?
#1360701
06
#1361079
07
#1364376
0@
#1364427
1D
#1364731
1E
#1380000
1!
0*
#1380527
16
#1380917
17
#1382554
0C
#1383142
0D
#1383460
0E
#1400000
0!
1*
#1400701
06
#1401079
07
#1420000
1!
0*
#1420527
16
#1420917
17
#1422554
0F
#1440000
1$
0!
1*
#1440507
1?
#1440701
06
#1441079
07
#1443970
1B
#1443989
1D
#1444293
1E
#1460000
1!
0*
#1460527
16
#1460917
17
#1462554
1C
1F
#1462923
0B
#1463051
0D
#1463141
1@
#1463369
0E
#1480000
0!
1*
#1480701
06
#1481079
07
#1500000
1!
0*
#1500527
16
#1500917
17
#1502554
1A
0C
0F
#1502924
1D
#1503228
1E
#1503298
1H
#1503601
1I
#1520000
0!
1*
#1520701
06
#1521079
07
#1540000
1!
0*
#1540527
16
#1540917
17
#1542554
1F
1J
#1545839
15
1)
#1560000
0!
1*
#1560701
06
#1561079
07
#1580000
1!
0*
#1580527
16
#1580917
17
#1600000
0!
1*
#1600701
06
#1601079
07
#1620000
1!
0*
#1620527
16
#1620917
17
#1640000
0$
0!
1*
#1640681
0?
#1640701
06
#1641079
07
#1644376
0@
#1660000
1!
0*
#1660527
16
#1660917
17
#1662554
0A
#1662992
0D
#1663310
0E
#1680000
1$
0!
1*
#1680507
1?
#1680701
06
#1681079
07
#1683970
1B
#1700000
1!
0*
#1700527
16
#1700917
17
#1702554
1C
0F
#1702923
0B
#1703016
1G
#1703141
1@
#1703281
1K
#1703284
1N
#1703303
0H
#1703584
0O
#1703594
1Q
#1703621
0I
#1720000
0!
1*
#1720701
06
#1721079
07
#1740000
1!
0*
#1740527
16
#1740917
17
#1742554
1A
0C
0J
0P
1R
#1742907
1O
#1742923
0Q
#1742924
1D
#1743119
1H
#1743140
0G
#1743214
0K
#1743228
1E
#1743323
1Q
#1743422
1I
#1743541
0N
#1743867
0O
#1745643
03
0'
#1745758
05
0)
#1745919
12
1&
#1760000
0!
1*
#1760701
06
#1761079
07
#1780000
1!
0*
#1780527
16
#1780917
17
#1782554
1F
1J
#1785839
15
1)
#1800000
0$
0!
1*
#1800681
0?
#1800701
06
#1801079
07
#1804376
0@
#1820000
1!
0*
#1820527
16
#1820917
17
#1822554
0A
#1822992
0D
#1823310
0E
#1840000
0!
1*
#1840701
06
#1841079
07
#1860000
1!
0*
#1860527
16
#1860917
17
#1862554
0F
#1880000
0!
1*
#1880701
06
#1881079
07
#1900000
1!
0*
#1900527
16
#1900917
17
#1920000
0!
1*
#1920701
06
#1921079
07
#1940000
1!
0*
#1940527
16
#1940917
17
#1960000
1$
0!
1*
#1960507
1?
#1960701
06
#1961079
07
#1963970
1B
#1963989
1D
#1964293
1E
#1980000
1!
0*
#1980527
16
#1980917
17
#1982554
1C
1F
#1982923
0B
#1983051
0D
#1983141
1@
#1983369
0E
#2000000
0!
1*
#2000701
06
#2001079
07
#2020000
1!
0*
#2020527
16
#2020917
17
#2022554
1A
0C
0F
#2022924
1D
#2023228
1E
#2023281
1K
#2023303
0H
#2023582
0L
#2023591
1N
#2023621
0I
#2023901
1O
#2040000
0$
0!
1*
#2040681
0?
#2040701
06
#2041079
07
#2044376
0@
#2060000
1!
0*
#2060527
16
#2060917
17
#2062554
0A
1F
0J
0M
1P
#2062907
1L
#2062923
0O
#2062992
0D
#2063206
0K
#2063215
0N
#2063258
0Q
#2063310
0E
#2063533
0L
#2063551
1O
1Q
#2065718
13
1'
#2065758
05
0)
#2066239
04
0(
#2080000
0!
1*
#2080701
06
#2081079
07
#2100000
1!
0*
#2100527
16
#2100917
17
#2102554
0F
#2120000
0!
1*
#2120701
06
#2121079
07
#2140000
1!
0*
#2140527
16
#2140917
17
#2160000
0!
1*
#2160701
06
#2161079
07
#2180000
1!
0*
#2180527
16
#2180917
17
#2200000
0!
1*
#2200701
06
#2201079
07
#2220000
1!
0*
#2220527
16
#2220917
17
#2240000
0!
1*
#2240701
06
#2241079
07
#2260000
1!
0*
#2260527
16
#2260917
17
#2280000
0!
1*
#2280701
06
#2281079
07
#2300000
1!
0*
#2300527
16
#2300917
17
#2320000
0!
1*
#2320701
06
#2321079
07
#2340000
1!
0*
#2340527
16
#2340917
17
#2360000
1$
0!
1*
#2360507
1?
#2360701
06
#2361079
07
#2363970
1B
#2363989
1D
#2364293
1E
#2380000
1!
0*
#2380527
16
#2380917
17
#2382554
1C
1F
#2382923
0B
#2383051
0D
#2383141
1@
#2383369
0E
#2400000
0!
1*
#2400701
06
#2401079
07
#2420000
1!
0*
#2420527
16
#2420917
17
#2422554
1A
0C
0F
#2422924
1D
#2423228
1E
#2423298
1H
#2423601
1I
#2440000
0!
1*
#2440701
06
#2441079
07
#2460000
1!
0*
#2460527
16
#2460917
17
#2462554
1F
1J
#2465839
15
1)
#2480000
0!
1*
#2480701
06
#2481079
07
#2500000
1!
0*
#2500527
16
#2500917
17
#2520000
0!
1*
#2520701
06
#2521079
07
#2540000
1!
0*
#2540527
16
#2540917
17
#2560000
0!
1*
#2560701
06
#2561079
07
#2580000
1!
0*
#2580527
16
#2580917
17
#2600000
0$
0!
1*
#2600681
0?
#2600701
06
#2601079
07
#2604376
0@
#2620000
1!
0*
#2620527
16
#2620917
17
#2622554
0A
#2622992
0D
#2623310
0E
#2640000
0"
0!
1*
#2640691
08
#2640701
06
#2641079
07
#2644203
1=
#2660000
1!
0*
#2660527
16
#2660917
17
#2662554
1>
0F
#2662923
0=
#2662952
09
#2663199
0I
#2663237
0Q
#2663238
0O
#2665743
11
1%
#2680000
0!
1*
#2680701
06
#2681079
07
#2700000
1!
0*
#2700527
16
#2700917
17
#2702554
0<
0>
0J
0P
0R
#2703109
0H
#2703287
1I
#2703427
0I
#2705643
03
0'
#2705657
01
0%
#2705758
05
0)
#2705829
02
0&
#2720000
0!
1*
#2720701
06
#2721079
07
#2740000
1!
0*
#2740527
16
#2740917
17
#2760000
0!
1*
#2760701
06
#2761079
07
#2780000
1!
0*
#2780527
16
#2780917
17
#2800000
0!
1*
#2800701
06
#2801079
07
#2820000
1!
0*
#2820527
16
#2820917
17
#2840000
0!
1*
#2840701
06
#2841079
07
#2860000
1!
0*
#2860527
16
#2860917
17
#2880000
1"
0!
1*
#2880517
18
#2880701
06
#2881079
07
#2884028
19
#2900000
1!
0*
#2900527
16
#2900917
17
#2902554
1<
#2920000
0!
1*
#2920701
06
#2921079
07
#2940000
1!
0*
#2940527
16
#2940917
17
#2960000
0!
1*
#2960701
06
#2961079
07
#2980000
1!
0*
#2980527
16
#2980917
17
#3000000
0!
1*
#3000701
06
#3001079
07
#3020000
1!
0*
#3020527
16
#3020917
17
#3040000
1$
0!
1*
#3040507
1?
#3040701
06
#3041079
07
#3043970
1B
#3043989
1D
#3044293
1E
#3060000
1!
0*
#3060527
16
#3060917
17
#3062554
1C
1F
#3062923
0B
#3063051
0D
#3063141
1@
#3063369
0E
#3080000
0!
1*
#3080701
06
#3081079
07
#3100000
1!
0*
#3100527
16
#3100917
17
#3102554
1A
0C
0F
#3102924
1D
#3103228
1E
#3103298
1H
#3103601
1I
#3120000
0!
1*
#3120701
06
#3121079
07
#3140000
1!
0*
#3140527
16
#3140917
17
#3142554
1F
1J
#3145839
15
1)
#3160000
0$
0!
1*
#3160681
0?
#3160701
06
#3161079
07
#3164376
0@
#3180000
1!
0*
#3180527
16
#3180917
17
#3182554
0A
#3182992
0D
#3183310
0E
#3200000
1$
0!
1*
#3200507
1?
#3200701
06
#3201079
07
#3203970
1B
#3220000
1!
0*
#3220527
16
#3220917
17
#3222554
1C
0F
#3222923
0B
#3223016
1G
#3223141
1@
#3223281
1K
#3223303
0H
#3223591
1N
#3223621
0I
#3223901
1O
#3240000
0$
0!
1*
#3240681
0?
#3240701
06
#3241079
07
#3244376
0@
#3244427
1D
#3244731
1E
#3260000
1!
0*
#3260527
16
#3260917
17
#3262554
0C
1F
0J
1P
#3262923
0O
#3262924
0G
#3263142
0D
#3263206
0K
#3263207
0N
#3263262
1Q
#3263460
0E
#3263533
0Q
#3263543
1O
#3265718
13
1'
#3265758
05
0)
#3280000
1$
0!
1*
#3280507
1?
#3280701
06
#3281079
07
#3283970
1B
#3300000
1!
0*
#3300527
16
#3300917
17
#3302554
1C
0F
#3302923
0B
#3303016
1G
#3303141
1@
#3303298
1H
#3303577
1L
#3303601
1I
#3320000
0$
0!
1*
#3320681
0?
#3320701
06
#3321079
07
#3324376
0@
#3324427
1D
#3324731
1E
#3340000
1!
0*
#3340527
16
#3340917
17
#3342554
0C
1F
1J
1M
#3342923
0L
#3342924
0G
#3343142
0D
#3343460
0E
#3343516
1L
#3345839
15
1)
#3346346
14
1(
#3360000
0!
1*
#3360701
06
#3361079
07
#3380000
1!
0*
#3380527
16
#3380917
17
#3382554
0F
#3400000
0!
1*
#3400701
06
#3401079
07
#3420000
1!
0*
#3420527
16
#3420917
17
#3440000
0!
1*
#3440701
06
#3441079
07
#3460000
1!
0*
#3460527
16
#3460917
17
#3480000
0!
1*
#3480701
06
#3481079
07
#3500000
1!
0*
#3500527
16
#3500917
17
#3520000
0!
1*
#3520701
06
#3521079
07
#3540000
1!
0*
#3540527
16
#3540917
17
#3560000
0!
1*
#3560701
06
#3561079
07
#3580000
1!
0*
#3580527
16
#3580917
17
#3600000
0!
1*
#3600701
06
#3601079
07
#3620000
1!
0*
#3620527
16
#3620917
17
#3640000
1$
0!
1*
#3640507
1?
#3640701
06
#3641079
07
#3643970
1B
#3643989
1D
#3644293
1E
#3660000
1!
0*
#3660527
16
#3660917
17
#3662554
1C
1F
#3662923
0B
#3663051
0D
#3663141
1@
#3663369
0E
#3680000
0!
1*
#3680701
06
#3681079
07
#3700000
1!
0*
#3700527
16
#3700917
17
#3702554
1A
0C
0F
#3702924
1D
#3703228
1E
#3703281
1K
#3703303
0H
#3703582
0L
#3703591
1N
#3703621
0I
#3703891
0O
#3703901
1Q
#3720000
0!
1*
#3720701
06
#3721079
07
#3740000
1!
0*
#3740527
16
#3740917
17
#3742554
1F
0J
0M
0P
1R
#3742907
1O
1L
#3742923
0Q
#3743206
0K
#3743215
0N
#3743323
1Q
#3743533
0L
#3743541
0O
#3745643
03
0'
#3745758
05
0)
#3745919
12
1&
#3746239
04
0(
#3760000
0!
1*
#3760701
06
#3761079
07
#3780000
1!
0*
#3780527
16
#3780917
17
#3800000
0!
1*
#3800701
06
#3801079
07
#3820000
1!
0*
#3820527
16
#3820917
17
#3840000
0!
1*
#3840701
06
#3841079
07
#3860000
1!
0*
#3860527
16
#3860917
17
#3880000
0!
1*
#3880701
06
#3881079
07
#3900000
1!
0*
#3900527
16
#3900917
17
#3920000
0!
1*
#3920701
06
#3921079
07
#3940000
1!
0*
#3940527
16
#3940917
17
#3960000
0!
1*
#3960701
06
#3961079
07
#3980000
1!
0*
#3980527
16
#3980917
17
#4000000
0!
1*
#4000701
06
#4001079
07
#4020000
1!
0*
#4020527
16
#4020917
17
#4040000
0!
1*
#4040701
06
#4041079
07
#4060000
1!
0*
#4060527
16
#4060917
17
#4080000
0!
1*
#4080701
06
#4081079
07
#4100000
1!
0*
#4100527
16
#4100917
17
#4120000
0!
1*
#4120701
06
#4121079
07
#4140000
1!
0*
#4140527
16
#4140917
17
#4160000
0$
0!
1*
#4160681
0?
#4160701
06
#4161079
07
#4164376
0@
#4180000
1!
0*
#4180527
16
#4180917
17
#4182554
0A
#4182992
0D
#4183310
0E
#4200000
0!
1*
#4200701
06
#4201079
07
#4220000
1!
0*
#4220527
16
#4220917
17
#4222554
0F
#4240000
0!
1*
#4240701
06
#4241079
07
#4260000
1!
0*
#4260527
16
#4260917
17
#4280000
0!
1*
#4280701
06
#4281079
07
#4300000
1!
0*
#4300527
16
#4300917
17
#4320000
1$
0!
1*
#4320507
1?
#4320701
06
#4321079
07
#4323970
1B
#4323989
1D
#4324293
1E
#4340000
1!
0*
#4340527
16
#4340917
17
#4342554
1C
1F
#4342923
0B
#4343051
0D
#4343141
1@
#4343369
0E
#4360000
0$
0!
1*
#4360681
0?
#4360701
06
#4361079
07
#4364376
0@
#4364427
1D
#4364731
1E
#4380000
1!
0*
#4380527
16
#4380917
17
#4382554
0C
#4383142
0D
#4383460
0E
#4400000
1$
0!
1*
#4400507
1?
#4400701
06
#4401079
07
#4403970
1B
#4420000
1!
0*
#4420527
16
#4420917
17
#4422554
1C
0F
#4422923
0B
#4423016
1G
#4423141
1@
#4423298
1H
#4423577
1L
#4423601
1I
#4440000
0$
0!
1*
#4440681
0?
#4440701
06
#4441079
07
#4444376
0@
#4444427
1D
#4444731
1E
#4460000
1!
0*
#4460527
16
#4460917
17
#4462554
0C
1F
1J
1M
#4462923
0L
#4462924
0G
#4463142
0D
#4463460
0E
#4463516
1L
#4465839
15
1)
#4466346
14
1(
#4480000
0!
1*
#4480701
06
#4481079
07
#4500000
1!
0*
#4500527
16
#4500917
17
#4502554
0F
#4520000
0!
1*
#4520701
06
#4521079
07
#4540000
1!
0*
#4540527
16
#4540917
17
#4560000
0!
1*
#4560701
06
#4561079
07
#4580000
1!
0*
#4580527
16
#4580917
17
#4600000
0!
1*
#4600701
06
#4601079
07
#4620000
1!
0*
#4620527
16
#4620917
17
#4640000
0!
1*
#4640701
06
#4641079
07
#4660000
1!
0*
#4660527
16
#4660917
17
#4680000
0"
0!
1*
#4680691
08
#4680701
06
#4681079
07
#4684203
1=
#4700000
1!
0*
#4700527
16
#4700917
17
#4702554
1>
#4702923
0=
#4702952
09
#4703199
0I
#4703237
0Q
#4703366
0L
#4705743
11
1%
#4720000
0!
1*
#4720701
06
#4721079
07
#4740000
1!
0*
#4740527
16
#4740917
17
#4742554
0<
0>
0J
0M
0R
#4743109
0H
#4743287
1I
#4743427
0I
#4745657
01
0%
#4745758
05
0)
#4745829
02
0&
#4746239
04
0(
#4760000
0!
1*
#4760701
06
#4761079
07
#4780000
1!
0*
#4780527
16
#4780917
17
#4800000
0!
1*
#4800701
06
#4801079
07
#4820000
1!
0*
#4820527
16
#4820917
17
#4840000
0!
1*
#4840701
06
#4841079
07
#4860000
1!
0*
#4860527
16
#4860917
17
#4880000
0!
1*
#4880701
06
#4881079
07
#4900000
1!
0*
#4900527
16
#4900917
17
#4920000
0!
1*
#4920701
06
#4921079
07
#4940000
1!
0*
#4940527
16
#4940917
17
#4960000
0!
1*
#4960701
06
#4961079
07
#4980000
1!
0*
#4980527
16
