Lab2_b11901003/Lab2_2/simulation/qsim/AC4.msim.vcd
$comment
	File created using the following command:
		vcd file AC4.msim.vcd -direction
$end
$date
	Tue Dec 27 18:57:56 2022
$end
$version
	ModelSim Version 10.1d
$end
$timescale
	1ps
$end
$scope module AC4_vlg_vec_tst $end
$var reg 1 ! clk $end
$var reg 1 " load $end
$var reg 1 # rst_n $end
$var reg 4 $ x_i [3:0] $end
$var wire 1 % done $end
$var wire 1 & sum_o [3] $end
$var wire 1 ' sum_o [2] $end
$var wire 1 ( sum_o [1] $end
$var wire 1 ) sum_o [0] $end
$var wire 1 * sampler $end
$scope module i1 $end
$var wire 1 + gnd $end
$var wire 1 , vcc $end
$var wire 1 - unknown $end
$var tri1 1 . devclrn $end
$var tri1 1 / devpor $end
$var tri1 1 0 devoe $end
$var wire 1 1 done~output_o $end
$var wire 1 2 sum_o[3]~output_o $end
$var wire 1 3 sum_o[2]~output_o $end
$var wire 1 4 sum_o[1]~output_o $end
$var wire 1 5 sum_o[0]~output_o $end
$var wire 1 6 clk~input_o $end
$var wire 1 7 clk~inputclkctrl_outclk $end
$var wire 1 8 load~input_o $end
$var wire 1 9 inst2|inst1|inst~feeder_combout $end
$var wire 1 : rst_n~input_o $end
$var wire 1 ; rst_n~inputclkctrl_outclk $end
$var wire 1 < inst2|inst1|inst~q $end
$var wire 1 = inst2|inst3|inst~0_combout $end
$var wire 1 > inst2|inst|inst~q $end
$var wire 1 ? inst2|inst4|inst~combout $end
$var wire 1 @ inst2|inst2|inst~q $end
$var wire 1 A inst2|inst5|inst~combout $end
$var wire 1 B x_i[3]~input_o $end
$var wire 1 C x_i[2]~input_o $end
$var wire 1 D x_i[1]~input_o $end
$var wire 1 E x_i[0]~input_o $end
$var wire 1 F inst3|inst|inst3~0_combout $end
$var wire 1 G inst5|inst5|inst~q $end
$var wire 1 H inst|inst6|inst1|inst~0_combout $end
$var wire 1 I inst3|inst1|inst3~0_combout $end
$var wire 1 J inst5|inst2|inst~q $end
$var wire 1 K inst|inst6|inst4|inst~0_combout $end
$var wire 1 L inst3|inst2|inst3~0_combout $end
$var wire 1 M inst5|inst1|inst~q $end
$var wire 1 N inst3|inst3|inst3~0_combout $end
$var wire 1 O inst3|inst3|inst3~1_combout $end
$var wire 1 P inst5|inst|inst~q $end
$upscope $end
$upscope $end
$enddefinitions $end
#0
$dumpvars
0!
0"
0#
b0 $
x%
x)
x(
x'
x&
x*
0+
1,
x-
1.
1/
10
x1
x2
x3
x4
x5
06
x7
08
x9
0:
x;
0<
x=
0>
x?
0@
xA
0B
0C
0D
0E
xF
0G
xH
xI
0J
xK
xL
0M
xN
xO
0P
$end
#378
0;
07
#420
0A
#443
0K
#531
0?
#541
09
#771
0N
#3131
04
0(
#3144
02
0&
#3152
03
0'
#3210
05
0)
#3702
0O
#3732
0L
#4095
0=
#4155
0F
#4396
01
0%
#4469
0H
#4786
0I
#20000
1!
0*
#20527
16
#20917
17
#40000
0!
1*
#40701
06
#41079
07
#60000
1!
0*
#60527
16
#60917
17
#80000
1#
1"
b1 $
0!
1*
#80507
1E
18
#80527
1:
#80701
06
#80917
1;
#81079
07
#84350
1=
#84398
1F
#100000
1!
0*
#100527
16
#100917
17
#102553
1>
1G
#103016
1?
#103063
1H
#105846
15
1)
#120000
b11 $
0"
b10 $
0!
1*
#120507
1D
#120681
08
0E
#120701
06
#121079
07
#124592
1I
#140000
1!
0*
#140527
16
#140917
17
#142553
1@
1J
#142940
1K
#143055
19
#143187
0H
#143249
1L
#143504
0I
#145763
14
1(
#160000
b11 $
0!
1*
#160507
1E
#160701
06
#161079
07
#164390
1H
#164412
0F
#164694
1I
#180000
1!
0*
#180527
16
#180917
17
#182553
1<
0G
1M
#182904
0?
#182906
1F
#182922
0L
#183109
0H
#183183
1N
#183426
0I
#183486
1O
#185763
05
0)
#185796
13
1'
#200000
b111 $
b101 $
b100 $
0!
1*
#200517
1C
#200681
0D
0E
#200701
06
#201079
07
#203988
1L
#204836
0F
#205142
1H
#205232
0K
#205446
1I
#205557
0L
#220000
1!
0*
#220527
16
#220917
17
#222553
0@
0M
#222906
1L
#222909
1P
#223094
09
#223114
1A
#223231
0N
#223262
0=
#223278
0O
#223558
1O
#225705
03
0'
#226136
12
1&
#227159
11
1%
#240000
b0 $
0!
1*
#240691
0C
#240701
06
#241079
07
#244423
0L
#260000
1!
0*
#260527
16
#260917
17
#262553
0<
0>
#262973
0A
#266949
01
0%
#280000
0!
1*
#280701
06
#281079
07
#300000
1!
0*
#300527
16
#300917
17
#320000
0!
1*
#320701
06
#321079
07
#340000
1!
0*
#340527
16
#340917
17
#360000
0!
1*
#360701
06
#361079
07
#380000
1!
0*
#380527
16
#380917
17
#400000
1"
b10 $
b11 $
b111 $
0!
1*
#400507
1D
1E
18
#400517
1C
#400701
06
#401079
07
#403988
1L
#404350
1=
#404382
0O
#404398
1F
#404621
0H
#404710
1K
#405021
1N
#420000
1!
0*
#420527
16
#420917
17
#422553
1>
1G
1M
#422909
0P
#423016
1?
#423063
1H
#425796
13
1'
#425846
15
1)
#426053
02
0&
#440000
0"
b101 $
b1 $
0!
1*
#440681
0D
08
#440691
0C
#440701
06
#441079
07
#444423
0L
#444808
1O
#444817
0F
#445150
0H
#445467
0I
#460000
1!
0*
#460527
16
#460917
17
#462553
1@
0G
0J
0M
#462906
1L
1F
#462909
1P
#463055
19
#463107
0K
#463231
0N
#463278
0O
#463432
0L
#463558
1O
#465684
04
0(
#465705
03
0'
#465763
05
0)
#466136
12
1&
#480000
b101 $
0!
1*
#480517
1C
#480701
06
#481079
07
#483988
1L
#500000
1!
0*
#500527
16
#500917
17
#502553
1<
1G
1M
#502904
0?
#502922
0L
0F
#503063
1H
#503183
1N
#503367
1I
#503476
0O
#505796
13
1'
#505846
15
1)
#520000
b100 $
b110 $
b10 $
0!
1*
#520507
1D
#520681
0E
#520691
0C
#520701
06
#521079
07
#524394
0N
#524409
1L
#524721
1O
#524822
1F
#540000
1!
0*
#540527
16
#540917
17
#542553
0@
1J
#542940
1K
#543094
09
#543114
1A
#543187
0H
#543239
0L
#543251
1N
#543262
0=
#543504
0I
#543544
0O
#545763
14
1(
#547159
11
1%
#560000
b0 $
0!
1*
#560681
0D
#560701
06
#561079
07
#565142
1H
#565232
0K
#565446
1I
#565560
0N
#565567
1L
#565887
1O
#580000
1!
0*
#580527
16
#580917
17
#582553
0<
0>
#582973
0A
#586949
01
0%
#600000
0!
1*
#600701
06
#601079
07
#620000
1!
0*
#620527
16
#620917
17
#640000
1"
b1 $
b11 $
0!
1*
#640507
1D
1E
18
#640701
06
#641079
07
#644350
1=
#644377
1K
#644378
0L
#644382
0O
#644688
1N
#660000
1!
0*
#660527
16
#660917
17
#662553
1>
0M
#662909
0P
#663016
1?
#663231
0N
#665705
03
0'
#666053
02
0&
#680000
b1011 $
0"
b1001 $
0!
1*
#680507
1B
#680681
08
0D
#680701
06
#681079
07
#683950
1O
#684804
1L
#684817
0F
#685150
0H
#685467
0I
#700000
1!
0*
#700527
16
#700917
17
#702553
1@
0G
0J
1M
#702906
1F
#702909
1P
#702922
0L
#703055
19
#703107
0K
#703183
1N
#703278
0O
#703435
0N
#703442
1L
#703486
1O
#703752
0O
#705684
04
0(
#705763
05
0)
#705796
13
1'
#706136
12
1&
#720000
b1000 $
b0 $
0!
1*
#720681
0B
0E
#720701
06
#721079
07
#724369
1O
#724836
0F
#740000
1!
0*
#740527
16
#740917
17
#742553
1<
#742904
0?
#760000
b1 $
0!
1*
#760507
1E
#760701
06
#761079
07
#764398
1F
#780000
1!
0*
#780527
16
#780917
17
#782553
0@
1G
#782922
0F
#783063
1H
#783094
09
#783114
1A
#783262
0=
#783367
1I
#785846
15
1)
#787159
11
1%
#800000
b0 $
0!
1*
#800681
0E
#800701
06
#801079
07
#804821
0H
#804822
1F
#805138
0I
#820000
1!
0*
#820527
16
#820917
17
#822553
0<
0>
#822973
0A
#826949
01
0%
#840000
0!
1*
#840701
06
#841079
07
#860000
1!
0*
#860527
16
#860917
17
#880000
0!
1*
#880701
06
#881079
07
#900000
1!
0*
#900527
16
#900917
17
#920000
0!
1*
#920701
06
#921079
07
#940000
1!
0*
#940527
16
#940917
17
#960000
0!
1*
#960701
06
#961079
07
#980000
1!
0*
#980527
16
